…
2. Make a panel plot containing a time series plot (i.e. \color{red}{\verb|type = "l"|}type = "l") of the 5-minute interval (x-axis) and the average number of steps taken, averaged across all weekday days or weekend days (y-axis). See the README file in the GitHub repository to see an example of what this plot should look like using simulated data.

```r
#Finding separate means for weekday and weekends per interval
steps_per_interval_by_daytype<-data_without_na %>%
  group_by(interval) %>%
  summarize(mean_weekday = mean(steps[DayType=='Weekday'], na.rm=TRUE), mean_weekend = mean(steps[DayType=='Weekend'], na.rm=TRUE))
steps_per_interval_by_daytype
```

```
## # A tibble: 288 x 3
##    interval mean_weekday mean_weekend
##       <int>        <dbl>        <dbl>
##  1        0       2.02          0    
##  2        5       0.4           0    
##  3       10       0.156         0    
##  4       15       0.178         0    
##  5       20       0.0889        0    
##  6       25       1.31          3.25 
##  7       30       0.622         0    
##  8       35       1.02          0    
##  9       40       0             0    
## 10       45       1.6           0.375
## # ... with 278 more rows
```
…
